module gitlab.torproject.org/dcf/snowflake-server-load

go 1.19

require (
	git.torproject.org/pluggable-transports/snowflake.git/v2 v2.5.1
	github.com/xtaci/kcp-go/v5 v5.6.1
	github.com/xtaci/smux v1.5.15
)

require (
	github.com/gorilla/websocket v1.5.0
	github.com/klauspost/cpuid v1.3.1 // indirect
	github.com/klauspost/reedsolomon v1.9.9 // indirect
	github.com/mmcloughlin/avo v0.0.0-20200803215136-443f81d77104 // indirect
	github.com/pkg/errors v0.9.1 // indirect
	github.com/templexxx/cpu v0.0.7 // indirect
	github.com/templexxx/xorsimd v0.4.1 // indirect
	github.com/tjfoc/gmsm v1.3.2 // indirect
	golang.org/x/crypto v0.0.0-20220516162934-403b01795ae8 // indirect
	golang.org/x/mod v0.3.0 // indirect
	golang.org/x/net v0.0.0-20220425223048-2871e0cb64e4 // indirect
	golang.org/x/sys v0.0.0-20211216021012-1d35b9e2eb4e // indirect
	golang.org/x/tools v0.0.0-20201224043029-2b0845dc783e // indirect
	golang.org/x/xerrors v0.0.0-20200804184101-5ec99f83aff1 // indirect
)
